* Spice netlister for gnetlist
*
* 100Mhz Lowpass Filter
*
* Created By: Daniel Kulas 7/5/12
*
*
AV1 %v([n0 0]) filesrc
.model filesrc filesource (file="signal.dat" amploffset=[0 0] amplscale=[1 1]
+						  timeoffset=0 timescale=1
+						  timerelative=false amplstep=false)
*
*
R1 n0 n1 7.234k
R2 n1 0 1Meg
C1 n1 0 0.22pF
*
*
.tran 0.1ns 0.1us
.control
set filetype=ascii		
run
write output.dat n1		
.endc
*
.END
quit
